C:\Users\陈益楠\Desktop\原理陈益楠\摸底扫盲\system-server\src\main\java\com\bbyb\operating\examination\mapper\ExaminationPaperResultMapper.java
C:\Users\陈益楠\Desktop\原理陈益楠\摸底扫盲\system-server\src\main\java\com\bbyb\operating\examination\mapper\ExaminationPaperScoreMapper.java
C:\Users\陈益楠\Desktop\原理陈益楠\摸底扫盲\system-server\src\main\java\com\bbyb\operating\examination\model\po\ExaminationApply.java
C:\Users\陈益楠\Desktop\原理陈益楠\摸底扫盲\system-server\src\main\java\com\bbyb\operating\examination\model\po\RoleMenu.java
C:\Users\陈益楠\Desktop\原理陈益楠\摸底扫盲\system-server\src\main\java\com\bbyb\operating\examination\service\impl\UserServiceImpl.java
C:\Users\陈益楠\Desktop\原理陈益楠\摸底扫盲\system-server\src\main\java\com\bbyb\operating\examination\model\po\QuestionType.java
C:\Users\陈益楠\Desktop\原理陈益楠\摸底扫盲\system-server\src\main\java\com\bbyb\operating\examination\mapper\RoleMapper.java
C:\Users\陈益楠\Desktop\原理陈益楠\摸底扫盲\system-server\src\main\java\com\bbyb\operating\examination\model\po\SysDic.java
C:\Users\陈益楠\Desktop\原理陈益楠\摸底扫盲\system-server\src\main\java\com\bbyb\operating\examination\mapper\ExaminationPaperQuestionMapper.java
C:\Users\陈益楠\Desktop\原理陈益楠\摸底扫盲\system-server\src\main\java\com\bbyb\operating\examination\controller\UserController.java
C:\Users\陈益楠\Desktop\原理陈益楠\摸底扫盲\system-server\src\main\java\com\bbyb\operating\examination\model\po\ExaminationPaperAnswer.java
C:\Users\陈益楠\Desktop\原理陈益楠\摸底扫盲\system-server\src\main\java\com\bbyb\operating\examination\model\po\User.java
C:\Users\陈益楠\Desktop\原理陈益楠\摸底扫盲\system-server\src\main\java\com\bbyb\operating\examination\mapper\MenuMapper.java
C:\Users\陈益楠\Desktop\原理陈益楠\摸底扫盲\system-server\src\main\java\com\bbyb\operating\examination\model\po\ExaminationPaperQuestion.java
C:\Users\陈益楠\Desktop\原理陈益楠\摸底扫盲\system-server\src\main\java\com\bbyb\operating\examination\mapper\ExaminationPlanMapper.java
C:\Users\陈益楠\Desktop\原理陈益楠\摸底扫盲\system-server\src\main\java\com\bbyb\operating\examination\model\po\ExaminationPaperResult.java
C:\Users\陈益楠\Desktop\原理陈益楠\摸底扫盲\system-server\src\main\java\com\bbyb\operating\examination\model\po\RoleUser.java
C:\Users\陈益楠\Desktop\原理陈益楠\摸底扫盲\system-server\src\main\java\com\bbyb\operating\examination\model\po\ExaminationSubject.java
C:\Users\陈益楠\Desktop\原理陈益楠\摸底扫盲\system-server\src\main\java\com\bbyb\operating\examination\service\UserService.java
C:\Users\陈益楠\Desktop\原理陈益楠\摸底扫盲\system-server\src\main\java\com\bbyb\operating\examination\mapper\SysDicMapper.java
C:\Users\陈益楠\Desktop\原理陈益楠\摸底扫盲\system-server\src\main\java\com\bbyb\operating\examination\mapper\ExaminationApplyMapper.java
C:\Users\陈益楠\Desktop\原理陈益楠\摸底扫盲\system-server\src\main\java\com\bbyb\operating\examination\mapper\RoleUserMapper.java
C:\Users\陈益楠\Desktop\原理陈益楠\摸底扫盲\system-server\src\main\java\com\bbyb\operating\examination\mapper\ExaminationMajorMapper.java
C:\Users\陈益楠\Desktop\原理陈益楠\摸底扫盲\system-server\src\main\java\com\bbyb\operating\examination\model\po\Menu.java
C:\Users\陈益楠\Desktop\原理陈益楠\摸底扫盲\system-server\src\main\java\com\bbyb\operating\examination\config\JacksonConfig.java
C:\Users\陈益楠\Desktop\原理陈益楠\摸底扫盲\system-server\src\main\java\com\bbyb\operating\examination\mapper\ExaminationPaperAnswerMapper.java
C:\Users\陈益楠\Desktop\原理陈益楠\摸底扫盲\system-server\src\main\java\com\bbyb\operating\examination\mapper\ExaminationPaperMapper.java
C:\Users\陈益楠\Desktop\原理陈益楠\摸底扫盲\system-server\src\main\java\com\bbyb\operating\examination\model\po\ExaminationPaperScore.java
C:\Users\陈益楠\Desktop\原理陈益楠\摸底扫盲\system-server\src\main\java\com\bbyb\operating\examination\mapper\QuestionTypeMapper.java
C:\Users\陈益楠\Desktop\原理陈益楠\摸底扫盲\system-server\src\main\java\com\bbyb\operating\examination\mapper\ExaminationSubjectMapper.java
C:\Users\陈益楠\Desktop\原理陈益楠\摸底扫盲\system-server\src\main\java\com\bbyb\operating\examination\mapper\UserMapper.java
C:\Users\陈益楠\Desktop\原理陈益楠\摸底扫盲\system-server\src\main\java\com\bbyb\operating\examination\model\po\ExaminationPaper.java
C:\Users\陈益楠\Desktop\原理陈益楠\摸底扫盲\system-server\src\main\java\com\bbyb\operating\examination\model\po\Role.java
C:\Users\陈益楠\Desktop\原理陈益楠\摸底扫盲\system-server\src\main\java\com\bbyb\operating\examination\BbybExaminationApplication.java
C:\Users\陈益楠\Desktop\原理陈益楠\摸底扫盲\system-server\src\main\java\com\bbyb\operating\examination\model\po\ExaminationPlan.java
C:\Users\陈益楠\Desktop\原理陈益楠\摸底扫盲\system-server\src\main\java\com\bbyb\operating\examination\model\po\ExaminationMajor.java
C:\Users\陈益楠\Desktop\原理陈益楠\摸底扫盲\system-server\src\main\java\com\bbyb\operating\examination\model\vo\CommonResult.java
C:\Users\陈益楠\Desktop\原理陈益楠\摸底扫盲\system-server\src\main\java\com\bbyb\operating\examination\mapper\RoleMenuMapper.java
